<?xml version="1.0" encoding="UTF-8" standalone="no"?>
<!-- Generated by CodeCogs with dvisvgm 2.13.3 -->

<svg
   version="1.1"
   width="233.372459pt"
   height="13.50934pt"
   viewBox="-.239051 -.240635 233.372459 13.50934"
   id="svg178"
   sodipodi:docname="russel_zermelo_paradox.svg"
   inkscape:version="1.2.2 (b0a8486541, 2022-12-01)"
   xmlns:inkscape="http://www.inkscape.org/namespaces/inkscape"
   xmlns:sodipodi="http://sodipodi.sourceforge.net/DTD/sodipodi-0.dtd"
   xmlns:xlink="http://www.w3.org/1999/xlink"
   xmlns="http://www.w3.org/2000/svg"
   xmlns:svg="http://www.w3.org/2000/svg">
  <sodipodi:namedview
     id="namedview180"
     pagecolor="#505050"
     bordercolor="#ffffff"
     borderopacity="1"
     inkscape:showpageshadow="0"
     inkscape:pageopacity="0"
     inkscape:pagecheckerboard="1"
     inkscape:deskcolor="#505050"
     inkscape:document-units="pt"
     showgrid="false"
     inkscape:zoom="4.190726"
     inkscape:cx="155.58163"
     inkscape:cy="9.1869523"
     inkscape:window-width="1916"
     inkscape:window-height="1028"
     inkscape:window-x="0"
     inkscape:window-y="24"
     inkscape:window-maximized="1"
     inkscape:current-layer="svg178" />
  <defs
     id="defs123">
    <path
       id="g2-61"
       d="M8.069738-3.873474C8.237111-3.873474 8.452304-3.873474 8.452304-4.088667C8.452304-4.315816 8.249066-4.315816 8.069738-4.315816H1.028144C.860772-4.315816 .645579-4.315816 .645579-4.100623C.645579-3.873474 .848817-3.873474 1.028144-3.873474H8.069738ZM8.069738-1.649813C8.237111-1.649813 8.452304-1.649813 8.452304-1.865006C8.452304-2.092154 8.249066-2.092154 8.069738-2.092154H1.028144C.860772-2.092154 .645579-2.092154 .645579-1.876961C.645579-1.649813 .848817-1.649813 1.028144-1.649813H8.069738Z" />
    <path
       id="g0-44"
       d="M3.036613-4.387547C3.718057-5.164633 4.076712-6.03736 4.076712-6.133001C4.076712-6.276463 3.945205-6.276463 3.837609-6.276463C3.658281-6.276463 3.658281-6.264508 3.550685-6.025405C3.060523-4.925529 2.175841-3.825654 .609714-3.156164C.442341-3.084433 .406476-3.072478 .406476-2.988792C.406476-2.964882 .406476-2.940971 .418431-2.917061C.442341-2.893151 .454296-2.881196 .6934-2.773599C2.008468-2.223661 2.988792-1.207472 3.598506 .179328C3.646326 .286924 3.694147 .298879 3.837609 .298879C3.945205 .298879 4.076712 .298879 4.076712 .155417C4.076712 .059776 3.718057-.812951 3.036613-1.590037H8.9066C8.225156-.812951 7.866501 .059776 7.866501 .155417C7.866501 .298879 7.998007 .298879 8.105604 .298879C8.284932 .298879 8.284932 .286924 8.392528 .047821C8.88269-1.052055 9.767372-2.15193 11.333499-2.82142C11.500872-2.893151 11.536737-2.905106 11.536737-2.988792C11.536737-3.012702 11.536737-3.036613 11.524782-3.060523C11.500872-3.084433 11.488917-3.096389 11.249813-3.203985C9.934745-3.753923 8.954421-4.770112 8.344707-6.156912C8.296887-6.264508 8.249066-6.276463 8.105604-6.276463C7.998007-6.276463 7.866501-6.276463 7.866501-6.133001C7.866501-6.03736 8.225156-5.164633 8.9066-4.387547H3.036613ZM2.570361-2.068244C2.211706-2.414944 1.80523-2.701868 1.315068-2.988792C1.972603-3.371357 2.331258-3.670237 2.570361-3.90934H9.372852C9.731507-3.56264 10.137983-3.275716 10.628144-2.988792C9.97061-2.606227 9.611955-2.307347 9.372852-2.068244H2.570361Z" />
    <path
       id="g0-50"
       d="M6.551432-2.749689C6.75467-2.749689 6.969863-2.749689 6.969863-2.988792S6.75467-3.227895 6.551432-3.227895H1.482441C1.625903-4.829888 3.000747-5.977584 4.686426-5.977584H6.551432C6.75467-5.977584 6.969863-5.977584 6.969863-6.216687S6.75467-6.455791 6.551432-6.455791H4.662516C2.618182-6.455791 .992279-4.901619 .992279-2.988792S2.618182 .478207 4.662516 .478207H6.551432C6.75467 .478207 6.969863 .478207 6.969863 .239103S6.75467 0 6.551432 0H4.686426C3.000747 0 1.625903-1.147696 1.482441-2.749689H6.551432Z" />
    <path
       id="g0-102"
       d="M3.383313-7.376339C3.383313-7.854545 3.694147-8.619676 4.99726-8.703362C5.057036-8.715318 5.104857-8.763138 5.104857-8.834869C5.104857-8.966376 5.009215-8.966376 4.877709-8.966376C3.682192-8.966376 2.594271-8.356663 2.582316-7.47198V-4.746202C2.582316-4.27995 2.582316-3.897385 2.10411-3.502864C1.685679-3.156164 1.231382-3.132254 .968369-3.120299C.908593-3.108344 .860772-3.060523 .860772-2.988792C.860772-2.86924 .932503-2.86924 1.052055-2.857285C1.841096-2.809465 2.414944-2.379078 2.546451-1.793275C2.582316-1.661768 2.582316-1.637858 2.582316-1.207472V1.159651C2.582316 1.661768 2.582316 2.044334 3.156164 2.49863C3.622416 2.857285 4.411457 2.988792 4.877709 2.988792C5.009215 2.988792 5.104857 2.988792 5.104857 2.857285C5.104857 2.737733 5.033126 2.737733 4.913574 2.725778C4.160399 2.677958 3.574595 2.295392 3.419178 1.685679C3.383313 1.578082 3.383313 1.554172 3.383313 1.123786V-1.3868C3.383313-1.936737 3.287671-2.139975 2.905106-2.52254C2.654047-2.773599 2.307347-2.893151 1.972603-2.988792C2.952927-3.263761 3.383313-3.813699 3.383313-4.507098V-7.376339Z" />
    <path
       id="g0-103"
       d="M2.582316 1.398755C2.582316 1.876961 2.271482 2.642092 .968369 2.725778C.908593 2.737733 .860772 2.785554 .860772 2.857285C.860772 2.988792 .992279 2.988792 1.099875 2.988792C2.259527 2.988792 3.371357 2.402989 3.383313 1.494396V-1.231382C3.383313-1.697634 3.383313-2.080199 3.861519-2.47472C4.27995-2.82142 4.734247-2.84533 4.99726-2.857285C5.057036-2.86924 5.104857-2.917061 5.104857-2.988792C5.104857-3.108344 5.033126-3.108344 4.913574-3.120299C4.124533-3.16812 3.550685-3.598506 3.419178-4.184309C3.383313-4.315816 3.383313-4.339726 3.383313-4.770112V-7.137235C3.383313-7.639352 3.383313-8.021918 2.809465-8.476214C2.331258-8.846824 1.506351-8.966376 1.099875-8.966376C.992279-8.966376 .860772-8.966376 .860772-8.834869C.860772-8.715318 .932503-8.715318 1.052055-8.703362C1.80523-8.655542 2.391034-8.272976 2.546451-7.663263C2.582316-7.555666 2.582316-7.531756 2.582316-7.10137V-4.590785C2.582316-4.040847 2.677958-3.837609 3.060523-3.455044C3.311582-3.203985 3.658281-3.084433 3.993026-2.988792C3.012702-2.713823 2.582316-2.163885 2.582316-1.470486V1.398755Z" />
    <path
       id="g0-106"
       d="M1.900872-8.53599C1.900872-8.751183 1.900872-8.966376 1.661768-8.966376S1.422665-8.751183 1.422665-8.53599V2.558406C1.422665 2.773599 1.422665 2.988792 1.661768 2.988792S1.900872 2.773599 1.900872 2.558406V-8.53599Z" />
    <path
       id="g1-59"
       d="M2.331258 .047821C2.331258-.645579 2.10411-1.159651 1.613948-1.159651C1.231382-1.159651 1.0401-.848817 1.0401-.585803S1.219427 0 1.625903 0C1.78132 0 1.912827-.047821 2.020423-.155417C2.044334-.179328 2.056289-.179328 2.068244-.179328C2.092154-.179328 2.092154-.011955 2.092154 .047821C2.092154 .442341 2.020423 1.219427 1.327024 1.996513C1.195517 2.139975 1.195517 2.163885 1.195517 2.187796C1.195517 2.247572 1.255293 2.307347 1.315068 2.307347C1.41071 2.307347 2.331258 1.422665 2.331258 .047821Z" />
    <path
       id="g1-61"
       d="M5.128767-8.524035C5.128767-8.53599 5.200498-8.715318 5.200498-8.739228C5.200498-8.88269 5.080946-8.966376 4.985305-8.966376C4.925529-8.966376 4.817933-8.966376 4.722291-8.703362L.71731 2.546451C.71731 2.558406 .645579 2.737733 .645579 2.761644C.645579 2.905106 .765131 2.988792 .860772 2.988792C.932503 2.988792 1.0401 2.976837 1.123786 2.725778L5.128767-8.524035Z" />
    <path
       id="g1-76"
       d="M4.387547-7.244832C4.495143-7.699128 4.531009-7.81868 5.583064-7.81868C5.905853-7.81868 5.989539-7.81868 5.989539-8.045828C5.989539-8.16538 5.858032-8.16538 5.810212-8.16538C5.571108-8.16538 5.296139-8.141469 5.057036-8.141469H3.455044C3.227895-8.141469 2.964882-8.16538 2.737733-8.16538C2.642092-8.16538 2.510585-8.16538 2.510585-7.938232C2.510585-7.81868 2.618182-7.81868 2.797509-7.81868C3.526775-7.81868 3.526775-7.723039 3.526775-7.591532C3.526775-7.567621 3.526775-7.49589 3.478954-7.316563L1.865006-.884682C1.75741-.466252 1.733499-.3467 .896638-.3467C.669489-.3467 .549938-.3467 .549938-.131507C.549938 0 .621669 0 .860772 0H6.216687C6.479701 0 6.491656-.011955 6.575342-.227148L7.49589-2.773599C7.519801-2.833375 7.543711-2.905106 7.543711-2.940971C7.543711-3.012702 7.483935-3.060523 7.424159-3.060523C7.412204-3.060523 7.352428-3.060523 7.328518-3.012702C7.304608-3.000747 7.304608-2.976837 7.208966-2.749689C6.826401-1.697634 6.288418-.3467 4.267995-.3467H3.120299C2.952927-.3467 2.929016-.3467 2.857285-.358655C2.725778-.37061 2.713823-.394521 2.713823-.490162C2.713823-.573848 2.737733-.645579 2.761644-.753176L4.387547-7.244832Z" />
    <path
       id="g1-82"
       d="M4.399502-7.352428C4.507098-7.79477 4.554919-7.81868 5.021171-7.81868H5.881943C6.910087-7.81868 7.675218-7.507846 7.675218-6.575342C7.675218-5.965629 7.364384-4.208219 4.961395-4.208219H3.610461L4.399502-7.352428ZM6.06127-4.064757C7.543711-4.387547 8.703362-5.34396 8.703362-6.372105C8.703362-7.304608 7.758904-8.16538 6.097136-8.16538H2.857285C2.618182-8.16538 2.510585-8.16538 2.510585-7.938232C2.510585-7.81868 2.594271-7.81868 2.82142-7.81868C3.53873-7.81868 3.53873-7.723039 3.53873-7.591532C3.53873-7.567621 3.53873-7.49589 3.490909-7.316563L1.876961-.884682C1.769365-.466252 1.745455-.3467 .920548-.3467C.645579-.3467 .561893-.3467 .561893-.119552C.561893 0 .6934 0 .729265 0C.944458 0 1.195517-.02391 1.422665-.02391H2.833375C3.048568-.02391 3.299626 0 3.514819 0C3.610461 0 3.741968 0 3.741968-.227148C3.741968-.3467 3.634371-.3467 3.455044-.3467C2.725778-.3467 2.725778-.442341 2.725778-.561893C2.725778-.573848 2.725778-.657534 2.749689-.753176L3.550685-3.969116H4.985305C6.121046-3.969116 6.336239-3.251806 6.336239-2.857285C6.336239-2.677958 6.216687-2.211706 6.133001-1.900872C6.001494-1.350934 5.965629-1.219427 5.965629-.992279C5.965629-.143462 6.659029 .251059 7.460025 .251059C8.428394 .251059 8.846824-.932503 8.846824-1.099875C8.846824-1.183562 8.787049-1.219427 8.715318-1.219427C8.619676-1.219427 8.595766-1.147696 8.571856-1.052055C8.284932-.203238 7.79477 .011955 7.49589 .011955S7.005729-.119552 7.005729-.657534C7.005729-.944458 7.149191-2.032379 7.161146-2.092154C7.220922-2.534496 7.220922-2.582316 7.220922-2.677958C7.220922-3.550685 6.515567-3.921295 6.06127-4.064757Z" />
    <path
       id="g1-101"
       d="M2.139975-2.773599C2.462765-2.773599 3.275716-2.797509 3.849564-3.012702C4.758157-3.359402 4.841843-4.052802 4.841843-4.267995C4.841843-4.794022 4.387547-5.272229 3.598506-5.272229C2.343213-5.272229 .537983-4.136488 .537983-2.008468C.537983-.753176 1.255293 .119552 2.343213 .119552C3.969116 .119552 4.99726-1.147696 4.99726-1.303113C4.99726-1.374844 4.925529-1.43462 4.877709-1.43462C4.841843-1.43462 4.829888-1.422665 4.722291-1.315068C3.957161-.298879 2.82142-.119552 2.367123-.119552C1.685679-.119552 1.327024-.657534 1.327024-1.542217C1.327024-1.709589 1.327024-2.008468 1.506351-2.773599H2.139975ZM1.566127-3.012702C2.080199-4.853798 3.21594-5.033126 3.598506-5.033126C4.124533-5.033126 4.483188-4.722291 4.483188-4.267995C4.483188-3.012702 2.570361-3.012702 2.068244-3.012702H1.566127Z" />
    <path
       id="g1-104"
       d="M3.359402-7.998007C3.371357-8.045828 3.395268-8.117559 3.395268-8.177335C3.395268-8.296887 3.275716-8.296887 3.251806-8.296887C3.239851-8.296887 2.654047-8.249066 2.594271-8.237111C2.391034-8.225156 2.211706-8.201245 1.996513-8.18929C1.697634-8.16538 1.613948-8.153425 1.613948-7.938232C1.613948-7.81868 1.709589-7.81868 1.876961-7.81868C2.462765-7.81868 2.47472-7.711083 2.47472-7.591532C2.47472-7.519801 2.450809-7.424159 2.438854-7.388294L.705355-.466252C.657534-.286924 .657534-.263014 .657534-.191283C.657534 .071731 .860772 .119552 .980324 .119552C1.183562 .119552 1.338979-.035866 1.398755-.167372L1.936737-2.331258C1.996513-2.594271 2.068244-2.84533 2.12802-3.108344C2.259527-3.610461 2.259527-3.622416 2.486675-3.969116S3.251806-5.033126 4.172354-5.033126C4.65056-5.033126 4.817933-4.674471 4.817933-4.196264C4.817933-3.526775 4.351681-2.223661 4.088667-1.506351C3.981071-1.219427 3.921295-1.06401 3.921295-.848817C3.921295-.310834 4.291905 .119552 4.865753 .119552C5.977584 .119552 6.396015-1.637858 6.396015-1.709589C6.396015-1.769365 6.348194-1.817186 6.276463-1.817186C6.168867-1.817186 6.156912-1.78132 6.097136-1.578082C5.822167-.621669 5.379826-.119552 4.901619-.119552C4.782067-.119552 4.590785-.131507 4.590785-.514072C4.590785-.824907 4.734247-1.207472 4.782067-1.338979C4.99726-1.912827 5.535243-3.323537 5.535243-4.016936C5.535243-4.734247 5.116812-5.272229 4.208219-5.272229C3.526775-5.272229 2.929016-4.94944 2.438854-4.327771L3.359402-7.998007Z" />
    <path
       id="g1-110"
       d="M2.462765-3.502864C2.486675-3.574595 2.785554-4.172354 3.227895-4.554919C3.53873-4.841843 3.945205-5.033126 4.411457-5.033126C4.889664-5.033126 5.057036-4.674471 5.057036-4.196264C5.057036-3.514819 4.566874-2.15193 4.327771-1.506351C4.220174-1.219427 4.160399-1.06401 4.160399-.848817C4.160399-.310834 4.531009 .119552 5.104857 .119552C6.216687 .119552 6.635118-1.637858 6.635118-1.709589C6.635118-1.769365 6.587298-1.817186 6.515567-1.817186C6.40797-1.817186 6.396015-1.78132 6.336239-1.578082C6.06127-.597758 5.606974-.119552 5.140722-.119552C5.021171-.119552 4.829888-.131507 4.829888-.514072C4.829888-.812951 4.961395-1.171606 5.033126-1.338979C5.272229-1.996513 5.774346-3.335492 5.774346-4.016936C5.774346-4.734247 5.355915-5.272229 4.447323-5.272229C3.383313-5.272229 2.82142-4.519054 2.606227-4.220174C2.570361-4.901619 2.080199-5.272229 1.554172-5.272229C1.171606-5.272229 .908593-5.045081 .705355-4.638605C.490162-4.208219 .32279-3.490909 .32279-3.443088S.37061-3.335492 .454296-3.335492C.549938-3.335492 .561893-3.347447 .633624-3.622416C.824907-4.351681 1.0401-5.033126 1.518306-5.033126C1.793275-5.033126 1.888917-4.841843 1.888917-4.483188C1.888917-4.220174 1.769365-3.753923 1.685679-3.383313L1.350934-2.092154C1.303113-1.865006 1.171606-1.327024 1.111831-1.111831C1.028144-.800996 .896638-.239103 .896638-.179328C.896638-.011955 1.028144 .119552 1.207472 .119552C1.350934 .119552 1.518306 .047821 1.613948-.131507C1.637858-.191283 1.745455-.609714 1.80523-.848817L2.068244-1.924782L2.462765-3.502864Z" />
    <path
       id="g1-116"
       d="M2.402989-4.805978H3.502864C3.730012-4.805978 3.849564-4.805978 3.849564-5.021171C3.849564-5.152677 3.777833-5.152677 3.53873-5.152677H2.486675L2.929016-6.898132C2.976837-7.065504 2.976837-7.089415 2.976837-7.173101C2.976837-7.364384 2.82142-7.47198 2.666002-7.47198C2.570361-7.47198 2.295392-7.436115 2.199751-7.053549L1.733499-5.152677H.609714C.37061-5.152677 .263014-5.152677 .263014-4.925529C.263014-4.805978 .3467-4.805978 .573848-4.805978H1.637858L.848817-1.649813C.753176-1.231382 .71731-1.111831 .71731-.956413C.71731-.394521 1.111831 .119552 1.78132 .119552C2.988792 .119552 3.634371-1.625903 3.634371-1.709589C3.634371-1.78132 3.58655-1.817186 3.514819-1.817186C3.490909-1.817186 3.443088-1.817186 3.419178-1.769365C3.407223-1.75741 3.395268-1.745455 3.311582-1.554172C3.060523-.956413 2.510585-.119552 1.817186-.119552C1.458531-.119552 1.43462-.418431 1.43462-.681445C1.43462-.6934 1.43462-.920548 1.470486-1.06401L2.402989-4.805978Z" />
    <path
       id="g1-120"
       d="M5.66675-4.877709C5.284184-4.805978 5.140722-4.519054 5.140722-4.291905C5.140722-4.004981 5.36787-3.90934 5.535243-3.90934C5.893898-3.90934 6.144956-4.220174 6.144956-4.542964C6.144956-5.045081 5.571108-5.272229 5.068991-5.272229C4.339726-5.272229 3.93325-4.554919 3.825654-4.327771C3.550685-5.224408 2.809465-5.272229 2.594271-5.272229C1.374844-5.272229 .729265-3.706102 .729265-3.443088C.729265-3.395268 .777086-3.335492 .860772-3.335492C.956413-3.335492 .980324-3.407223 1.004234-3.455044C1.41071-4.782067 2.211706-5.033126 2.558406-5.033126C3.096389-5.033126 3.203985-4.531009 3.203985-4.244085C3.203985-3.981071 3.132254-3.706102 2.988792-3.132254L2.582316-1.494396C2.402989-.777086 2.056289-.119552 1.422665-.119552C1.362889-.119552 1.06401-.119552 .812951-.274969C1.243337-.358655 1.338979-.71731 1.338979-.860772C1.338979-1.099875 1.159651-1.243337 .932503-1.243337C.645579-1.243337 .334745-.992279 .334745-.609714C.334745-.107597 .896638 .119552 1.41071 .119552C1.984558 .119552 2.391034-.334745 2.642092-.824907C2.833375-.119552 3.431133 .119552 3.873474 .119552C5.092902 .119552 5.738481-1.446575 5.738481-1.709589C5.738481-1.769365 5.69066-1.817186 5.618929-1.817186C5.511333-1.817186 5.499377-1.75741 5.463512-1.661768C5.140722-.609714 4.447323-.119552 3.90934-.119552C3.490909-.119552 3.263761-.430386 3.263761-.920548C3.263761-1.183562 3.311582-1.374844 3.502864-2.163885L3.921295-3.789788C4.100623-4.507098 4.507098-5.033126 5.057036-5.033126C5.080946-5.033126 5.415691-5.033126 5.66675-4.877709Z" />
  </defs>
  <g
     id="page1"
     transform="matrix(1.13 0 0 1.13 -63.986043 -64.41)">
    <use
       x="56.413267"
       y="65.753425"
       xlink:href="#g1-76"
       id="use125" />
    <use
       x="64.377774"
       y="65.753425"
       xlink:href="#g1-101"
       id="use127" />
    <use
       x="69.803214"
       y="65.753425"
       xlink:href="#g1-116"
       id="use129" />
    <use
       x="74.030373"
       y="65.753425"
       xlink:href="#g1-82"
       id="use131" />
    <use
       x="86.359718"
       y="65.753425"
       xlink:href="#g2-61"
       id="use133" />
    <use
       x="98.785199"
       y="65.753425"
       xlink:href="#g0-102"
       id="use135" />
    <use
       x="104.762798"
       y="65.753425"
       xlink:href="#g1-120"
       id="use137" />
    <use
       x="111.414885"
       y="65.753425"
       xlink:href="#g0-106"
       id="use139" />
    <use
       x="114.735776"
       y="65.753425"
       xlink:href="#g1-120"
       id="use141" />
    <use
       x="126.099351"
       y="65.753425"
       xlink:href="#g1-61"
       id="use143" />
    <use
       x="124.708692"
       y="65.753425"
       xlink:href="#g0-50"
       id="use145" />
    <use
       x="135.999649"
       y="65.753425"
       xlink:href="#g1-120"
       id="use147" />
    <use
       x="142.651736"
       y="65.753425"
       xlink:href="#g0-103"
       id="use149" />
    <use
       x="150.621833"
       y="65.753425"
       xlink:href="#g1-59"
       id="use151" />
    <use
       x="155.865992"
       y="65.753425"
       xlink:href="#g1-116"
       id="use153" />
    <use
       x="160.093151"
       y="65.753425"
       xlink:href="#g1-104"
       id="use155" />
    <use
       x="166.831706"
       y="65.753425"
       xlink:href="#g1-101"
       id="use157" />
    <use
       x="172.257146"
       y="65.753425"
       xlink:href="#g1-110"
       id="use159" />
    <use
       x="179.244752"
       y="65.753425"
       xlink:href="#g1-82"
       id="use161" />
    <use
       x="191.574097"
       y="65.753425"
       xlink:href="#g0-50"
       id="use163" />
    <use
       x="202.865065"
       y="65.753425"
       xlink:href="#g1-82"
       id="use165" />
    <use
       x="215.19441"
       y="65.753425"
       xlink:href="#g0-44"
       id="use167" />
    <use
       x="230.470441"
       y="65.753425"
       xlink:href="#g1-82"
       id="use169" />
    <use
       x="244.190445"
       y="65.753425"
       xlink:href="#g1-61"
       id="use171" />
    <use
       x="242.799786"
       y="65.753425"
       xlink:href="#g0-50"
       id="use173" />
    <use
       x="254.090743"
       y="65.753425"
       xlink:href="#g1-82"
       id="use175" />
  </g>
</svg>
